Statistical Computing in R 2023 - An Introduction to Regression in R
…
Multivariable logistic regression

The expressions utilised are exactly the same as in the multivariable linear regression model

log_reg <- glm(malaysian ~ age_cat + bid + comorb + male + state, 
               family = "binomial", data = c19_df)

tidy(log_reg, exponentiate = TRUE, conf.int = TRUE)

# A tibble: 23 × 7
   term                estimate std.error statistic   p.value conf.low conf.high
   <chr>                  <dbl>     <dbl>     <dbl>     <dbl>    <dbl>     <dbl>
 1 (Intercept)          38.4       0.112      32.5  2.49e-232  30.9      48.0   
 2 age_cat20-40          0.0709    0.101     -26.3  3.00e-152   0.0580    0.0861
 3 age_cat40-60          0.106     0.0943    -23.8  9.11e-125   0.0881    0.128 
 4 age_cat60:80          0.535     0.100      -6.26 3.75e- 10   0.438     0.648 
 5 age_catLess than 20   0.142     0.205      -9.51 1.94e- 21   0.0955    0.214 
 6 bid                   0.282     0.0398    -31.8  2.41e-221   0.261     0.305 
 7 comorb                3.45      0.0396     31.3  1.59e-215   3.20      3.73  
 8 male                  1.09      0.0394      2.29 2.20e-  2   1.01      1.18  
 9 stateKedah            3.37      0.139       8.76 1.88e- 18   2.58      4.45  
10 stateKelantan         2.75      0.194       5.22 1.76e-  7   1.91      4.09  
# ℹ 13 more rows

If you want to include two variables and an interaction between them you can separate them with an asterisk * instead of a +. Separate them with a colon : if you are only specifying the interaction. For example:

log_intrx_reg <- glm(malaysian ~ age_cat*bid + comorb + male + state, 
               family = "binomial", data = c19_df)

tidy(log_reg, exponentiate = TRUE, conf.int = TRUE)

# A tibble: 23 × 7
   term                estimate std.error statistic   p.value conf.low conf.high
   <chr>                  <dbl>     <dbl>     <dbl>     <dbl>    <dbl>     <dbl>
 1 (Intercept)          38.4       0.112      32.5  2.49e-232  30.9      48.0   
 2 age_cat20-40          0.0709    0.101     -26.3  3.00e-152   0.0580    0.0861
 3 age_cat40-60          0.106     0.0943    -23.8  9.11e-125   0.0881    0.128 
 4 age_cat60:80          0.535     0.100      -6.26 3.75e- 10   0.438     0.648 
 5 age_catLess than 20   0.142     0.205      -9.51 1.94e- 21   0.0955    0.214 
 6 bid                   0.282     0.0398    -31.8  2.41e-221   0.261     0.305 
 7 comorb                3.45      0.0396     31.3  1.59e-215   3.20      3.73  
 8 male                  1.09      0.0394      2.29 2.20e-  2   1.01      1.18  
 9 stateKedah            3.37      0.139       8.76 1.88e- 18   2.58      4.45  
10 stateKelantan         2.75      0.194       5.22 1.76e-  7   1.91      4.09  
# ℹ 13 more rows
…
## choose a model using forward selection based on AIC
## you can also do "backward" or "both" by adjusting the direction
final_log_reg <- log_reg %>%
  step(direction = "both", trace = FALSE)

Check the best fitting models based on both a backward and forward method

log_tab_base <- final_log_reg %>% 
  broom::tidy(exponentiate = TRUE, conf.int = TRUE) %>%  ## get a tidy dataframe of estimates 
  mutate(across(where(is.numeric), round, digits = 2))          ## round 

#check
log_tab_base

# A tibble: 23 × 7
   term                estimate std.error statistic p.value conf.low conf.high
   <chr>                  <dbl>     <dbl>     <dbl>   <dbl>    <dbl>     <dbl>
 1 (Intercept)            38.4       0.11     32.5     0       31.0      48.0 
 2 age_cat20-40            0.07      0.1     -26.3     0        0.06      0.09
 3 age_cat40-60            0.11      0.09    -23.8     0        0.09      0.13
 4 age_cat60:80            0.53      0.1      -6.26    0        0.44      0.65
 5 age_catLess than 20     0.14      0.21     -9.51    0        0.1       0.21
 6 bid                     0.28      0.04    -31.8     0        0.26      0.31
 7 comorb                  3.45      0.04     31.3     0        3.2       3.73
 8 male                    1.09      0.04      2.29    0.02     1.01      1.18
 9 stateKedah              3.37      0.14      8.76    0        2.58      4.45
10 stateKelantan           2.75      0.19      5.22    0        1.91      4.09
# ℹ 13 more rows
…
