Statistical Computing in R 2023 - Practical session 1: Untangling Data with Tidyverse: Data wranggling in R
…
Create a new column with the proportion of each gender in each state.

Solution:

c19_df %>%
  mutate(gender = ifelse(male == 1, "Male", "Female")) %>%
  group_by(state, gender) %>%
  summarise(count = n()) %>%
  mutate(proportion = count / sum(count))

`summarise()` has grouped output by 'state'. You can override using the
`.groups` argument.

# A tibble: 32 × 4
# Groups:   state [16]
   state           gender count proportion
   <chr>           <chr>  <int>      <dbl>
 1 Johor           Female  2096      0.442
 2 Johor           Male    2644      0.558
 3 Kedah           Female  1280      0.464
 4 Kedah           Male    1476      0.536
 5 Kelantan        Female   707      0.495
 6 Kelantan        Male     721      0.505
 7 Melaka          Female   529      0.436
 8 Melaka          Male     684      0.564
 9 Negeri Sembilan Female   675      0.437
10 Negeri Sembilan Male     871      0.563
# ℹ 22 more rows
…
Use summarise to count the number of deaths.

Solution:

c19_df %>%
  mutate(date = as.Date(date),
         year = year(date),
         month = month(date)) %>%
  group_by(year, month) %>%
  summarise(deaths = n())

`summarise()` has grouped output by 'year'. You can override using the
`.groups` argument.

# A tibble: 40 × 3
# Groups:   year [4]
    year month deaths
   <dbl> <dbl>  <int>
 1  2020     3     48
 2  2020     4     55
 3  2020     5     12
 4  2020     6      6
 5  2020     7      4
 6  2020     8      3
 7  2020     9     10
 8  2020    10    129
 9  2020    11    116
10  2020    12    133
# ℹ 30 more rows
…
Count the number of occurrences for each vaccine brand combination using summarise.

Solution:

c19_df %>%
  unite(col="profile", 
        brand1:brand3, 
        sep="_")  %>%
  filter(profile != "--") %>%
  group_by(profile) %>%
  summarise(count = n()) %>%
  arrange(desc(count))

# A tibble: 32 × 2
   profile                  count
   <chr>                    <int>
 1 __                       22437
 2 Sinovac_Sinovac_          4693
 3 Pfizer_Pfizer_            2733
 4 Sinovac__                 2672
 5 Pfizer__                  2141
 6 AstraZeneca__              707
 7 Pfizer_Pfizer_Pfizer       591
 8 Sinovac_Sinovac_Pfizer     548
 9 AstraZeneca_AstraZeneca_   242
10 Sinovac_Sinovac_Sinovac    145
# ℹ 22 more rows
