Statistical Computing in R 2023 - Untangling Data with Tidyverse: Data wranggling in R
…
You can see that there are now only 22276 rows in the data frame and the distribution of the age values is.

summary(c19_filter$age)

   Min. 1st Qu.  Median    Mean 3rd Qu.    Max. 
   60.0    66.0    73.0    73.7    81.0   130.0 

We can place an arbitrarily complex logical sequence inside of filter(), so we could for example extract the rows where age is greater than 60 and nationality (malaysian) is equal to 1

c19_filter <- filter(c19_df, age < 21 & malaysian==1)
select(c19_filter, date, malaysian, age)

# A tibble: 221 × 3
   date       malaysian   age
   <chr>          <int> <int>
 1 2020-10-05         1     1
 2 2020-11-08         1     2
 3 2020-11-15         1     8
 4 2020-11-04         1    15
 5 2021-02-03         1     0
 6 2021-01-21         1    18
 7 2021-02-09         1    20
 8 2021-02-13         1     9
 9 2021-05-10         1    17
10 2021-04-04         1     3
# ℹ 211 more rows
…
That can be done with the following sequence in a single R expression.

c19_df %>% 
  select(state, age) %>%
  arrange(age) %>%
  mutate(age_cat = ifelse(age<20, "<19", 
                         ifelse(age>59, ">60", "20-59"))) %>%   
  group_by(state, age_cat) %>% 
  summarise(age = mean(age, na.rm = TRUE),
          age_median= median(age, na.rm = TRUE))

`summarise()` has grouped output by 'state'. You can override using the
`.groups` argument.

# A tibble: 46 × 4
# Groups:   state [16]
   state    age_cat   age age_median
   <chr>    <chr>   <dbl>      <dbl>
 1 Johor    20-59   45.8       45.8 
 2 Johor    <19      8.62       8.62
 3 Johor    >60     73.5       73.5 
 4 Kedah    20-59   46.9       46.9 
 5 Kedah    <19      7.47       7.47
 6 Kedah    >60     73.7       73.7 
 7 Kelantan 20-59   47.7       47.7 
 8 Kelantan <19     14.4       14.4 
 9 Kelantan >60     74.1       74.1 
10 Melaka   20-59   46.0       46.0 
# ℹ 36 more rows
…
pivot_longer()

Even if your data is in a tidy format, pivot_longer() is useful for pulling data together to take advantage of faceting, or plotting separate plots based on a grouping variable.

dose2_df %>%
  pivot_longer(-date, 
               names_to = "brand2",
               values_to = "count")

# A tibble: 7,028 × 3
# Groups:   date [1,004]
   date       brand2           count
   <chr>      <chr>            <int>
 1 2020-03-17 unvaccinated         2
 2 2020-03-17 Pfizer              NA
 3 2020-03-17 Sinovac             NA
 4 2020-03-17 Pending VMS sync    NA
 5 2020-03-17 AstraZeneca         NA
 6 2020-03-17 Moderna             NA
 7 2020-03-17 Sinopharm           NA
 8 2020-03-20 unvaccinated         1
 9 2020-03-20 Pfizer              NA
10 2020-03-20 Sinovac             NA
# ℹ 7,018 more rows
…
Does inner_join give different results to left_join in the above example?

Right Join

The right_join() function is like the left_join() function except that it gives priority to the “right” hand argument.

right_join(x = state_df, y = hies_df, by = join_by(state==area))

# A tibble: 998 × 7
   state        deaths area_type income_mean expenditure_mean  gini poverty_rate
   <chr>         <int> <chr>           <int>            <int> <dbl>        <dbl>
 1 Johor          4740 state            8013             4793 0.366          3.9
 2 Kedah          2756 state            5522             3359 0.354          8.8
 3 Kelantan       1428 state            4874             3223 0.378         12.4
 4 Melaka         1213 state            7741             4955 0.383          3.9
 5 Negeri Semb…   1546 state            6707             4350 0.391          4.3
 6 Pahang         1037 state            5667             3652 0.33           4.3
 7 Perak          2164 state            5645             3564 0.377          7.3
 8 Perlis          199 state            5476             3468 0.334          3.9
 9 Perlis          199 district         5476             3468 0.334          3.9
10 Pulau Pinang   2085 state            7774             4630 0.359          1.9
# ℹ 988 more rows
…
